{
  "@context": "http://iotswarm.info/context.jsonld",
  "@id": "http://0.0.0.0:8405/led-service",
  "@type": "swarm:Led",
  "broker": "http://0.0.0.0:4000/broker",
  "description": "A LED service",
  "owner": "geovane",

  "pricing": {
    "minPrice": 2,
    "maxPrice": 5,
    "trustThreshold": 2.5,
    "walletId": ""
  },

  "geolocation": {
    "country": "Brasil",
    "postalCode": "01405-002",
    "streetAddress": "R. Pamplona",
    "streetNumber": 1501,
    "latitude": -23.569764,
    "longitude": -46.659426
  },

  "operations": [
    {
    "@type": "swarm:ReadOperation",
    "returns": "swarm:LightState",
    "method": "GET",
    "entry": "/led",
    "description": "Returns the current led state."
    },
    {
    "@type": "swarm:UpdateOperation",
    "expects": "swarm:LightState",
    "returns": "swarm:OperationResult",
    "entry": "/led",
    "method": "PUT",
    "description": "Updates the current led state."
    }
  ]
}
