[
    {
        "name": "Discovery rule",
        "user_attrs": [],
        "operations": [
            "discover"
        ],
        "object_attrs": [
            [
                "String",
                "swarm:ServiceType",
                "swarm:Led"
            ]
        ],
        "context_attrs": [],
        "id": "395d29fd-de3e-4533-bd77-9e86a6b3eebb"
    }
]